Introduction to weathercan
…
Stations

Where?

stations()

Included Data frame

library(weathercan)
stations()

# A tibble: 26,451 × 17
   prov  station_name        station_id climate_id WMO_id TC_id   lat   lon  elev tz        interval start   end normals
   <chr> <chr>                    <dbl> <chr>       <dbl> <chr> <dbl> <dbl> <dbl> <chr>     <chr>    <dbl> <dbl> <lgl>  
 1 AB    DAYSLAND                  1795 301AR54        NA <NA>   52.9 -112.  689. Etc/GMT+7 day       1908  1922 FALSE  
 2 AB    DAYSLAND                  1795 301AR54        NA <NA>   52.9 -112.  689. Etc/GMT+7 hour        NA    NA FALSE  
 3 AB    DAYSLAND                  1795 301AR54        NA <NA>   52.9 -112.  689. Etc/GMT+7 month     1908  1922 FALSE  
 4 AB    EDMONTON CORONATION       1796 301BK03        NA <NA>   53.6 -114.  671. Etc/GMT+7 day       1978  1979 FALSE  
 5 AB    EDMONTON CORONATION       1796 301BK03        NA <NA>   53.6 -114.  671. Etc/GMT+7 hour        NA    NA FALSE  
 6 AB    EDMONTON CORONATION       1796 301BK03        NA <NA>   53.6 -114.  671. Etc/GMT+7 month     1978  1979 FALSE  
 7 AB    FLEET                     1797 301B6L0        NA <NA>   52.2 -112.  838. Etc/GMT+7 day       1987  1990 FALSE  
 8 AB    FLEET                     1797 301B6L0        NA <NA>   52.2 -112.  838. Etc/GMT+7 hour        NA    NA FALSE  
 9 AB    FLEET                     1797 301B6L0        NA <NA>   52.2 -112.  838. Etc/GMT+7 month     1987  1990 FALSE  
10 AB    GOLDEN VALLEY             1798 301B8LR        NA <NA>   53.2 -110.  640  Etc/GMT+7 day       1987  1998 FALSE  
# ℹ 26,441 more rows
# ℹ 3 more variables: normals_1991_2020 <lgl>, normals_1981_2010 <lgl>, normals_1971_2000 <lgl>
…
Now download the data

w <- weather_dl(station_id = 49909, interval = "day", start = "2025-01-01", end = "2025-08-31")

weathercan uses ‘caching’ and will only download this data once per session

What do we have?

w

# A tibble: 243 × 37
   station_name station_id station_operator prov    lat    lon  elev climate_id WMO_id TC_id date       year  month
   <chr>             <dbl> <lgl>            <chr> <dbl>  <dbl> <dbl> <chr>      <chr>  <chr> <date>     <chr> <chr>
 1 BRANDON RCS       49909 NA               MB     49.9 -100.0  409. 5010490    71136  PBO   2025-01-01 2025  01   
 2 BRANDON RCS       49909 NA               MB     49.9 -100.0  409. 5010490    71136  PBO   2025-01-02 2025  01   
 3 BRANDON RCS       49909 NA               MB     49.9 -100.0  409. 5010490    71136  PBO   2025-01-03 2025  01   
 4 BRANDON RCS       49909 NA               MB     49.9 -100.0  409. 5010490    71136  PBO   2025-01-04 2025  01   
 5 BRANDON RCS       49909 NA               MB     49.9 -100.0  409. 5010490    71136  PBO   2025-01-05 2025  01   
 6 BRANDON RCS       49909 NA               MB     49.9 -100.0  409. 5010490    71136  PBO   2025-01-06 2025  01   
 7 BRANDON RCS       49909 NA               MB     49.9 -100.0  409. 5010490    71136  PBO   2025-01-07 2025  01   
 8 BRANDON RCS       49909 NA               MB     49.9 -100.0  409. 5010490    71136  PBO   2025-01-08 2025  01   
 9 BRANDON RCS       49909 NA               MB     49.9 -100.0  409. 5010490    71136  PBO   2025-01-09 2025  01   
10 BRANDON RCS       49909 NA               MB     49.9 -100.0  409. 5010490    71136  PBO   2025-01-10 2025  01   
# ℹ 233 more rows
# ℹ 24 more variables: day <chr>, qual <chr>, cool_deg_days <dbl>, cool_deg_days_flag <chr>, dir_max_gust <dbl>,
#   dir_max_gust_flag <chr>, heat_deg_days <dbl>, heat_deg_days_flag <chr>, max_temp <dbl>, max_temp_flag <chr>,
#   mean_temp <dbl>, mean_temp_flag <chr>, min_temp <dbl>, min_temp_flag <chr>, snow_grnd <dbl>, snow_grnd_flag <chr>,
#   spd_max_gust <dbl>, spd_max_gust_flag <chr>, total_precip <dbl>, total_precip_flag <chr>, total_rain <dbl>,
#   total_rain_flag <chr>, total_snow <dbl>, total_snow_flag <chr>
…
